<svg width="16" height="16" viewBox="0 0 16 16" fill="none" xmlns="http://www.w3.org/2000/svg">
<path d="M8 1.90625C6.79477 1.90625 5.61661 2.26364 4.6145 2.93323C3.61238 3.60282 2.83133 4.55454 2.37011 5.66802C1.90889 6.78151 1.78821 8.00676 2.02334 9.18883C2.25847 10.3709 2.83884 11.4567 3.69107 12.3089C4.5433 13.1612 5.6291 13.7415 6.81117 13.9767C7.99324 14.2118 9.21849 14.0911 10.332 13.6299C11.4455 13.1687 12.3972 12.3876 13.0668 11.3855C13.7364 10.3834 14.0938 9.20523 14.0938 8C14.092 6.38436 13.4495 4.83538 12.307 3.69295C11.1646 2.55052 9.61564 1.90796 8 1.90625ZM11.2813 8.46875H8C7.87568 8.46875 7.75645 8.41936 7.66855 8.33146C7.58064 8.24355 7.53125 8.12432 7.53125 8V4.71875C7.53125 4.59443 7.58064 4.4752 7.66855 4.38729C7.75645 4.29939 7.87568 4.25 8 4.25C8.12432 4.25 8.24355 4.29939 8.33146 4.38729C8.41937 4.4752 8.46875 4.59443 8.46875 4.71875V7.53125H11.2813C11.4056 7.53125 11.5248 7.58064 11.6127 7.66854C11.7006 7.75645 11.75 7.87568 11.75 8C11.75 8.12432 11.7006 8.24355 11.6127 8.33146C11.5248 8.41936 11.4056 8.46875 11.2813 8.46875Z" fill="#C084FC" style="fill:#C084FC;fill:color(display-p3 0.7529 0.5176 0.9882);fill-opacity:1;"/>
</svg>
