<svg width="12" height="11" viewBox="0 0 12 11" fill="none" xmlns="http://www.w3.org/2000/svg">
<path d="M11.5191 1.21742C11.4667 1.17659 11.4056 1.14822 11.3406 1.13448C11.2756 1.12074 11.2084 1.12199 11.1439 1.13813L7.80086 1.97375L4.44578 0.295937C4.3523 0.249311 4.24522 0.237672 4.14391 0.263125L0.643906 1.13813C0.549258 1.16178 0.465233 1.2164 0.405185 1.29329C0.345138 1.37018 0.312515 1.46494 0.3125 1.5625V9.4375C0.31251 9.50398 0.32767 9.56958 0.356828 9.62932C0.385986 9.68907 0.428376 9.74138 0.480777 9.78229C0.533178 9.8232 0.594213 9.85163 0.659246 9.86542C0.724279 9.87921 0.791599 9.878 0.856094 9.86187L4.19914 9.02625L7.55422 10.7041C7.61513 10.7341 7.68209 10.7498 7.75 10.75C7.78577 10.75 7.8214 10.7456 7.85609 10.7369L11.3561 9.86187C11.4507 9.83822 11.5348 9.7836 11.5948 9.70671C11.6549 9.62982 11.6875 9.53506 11.6875 9.4375V1.5625C11.6875 1.49596 11.6724 1.43029 11.6432 1.37049C11.614 1.3107 11.5715 1.25834 11.5191 1.21742ZM4.6875 1.39516L7.3125 2.70766V9.60484L4.6875 8.29234V1.39516ZM1.1875 1.9043L3.8125 1.24805V8.2207L1.1875 8.87695V1.9043ZM10.8125 9.0957L8.1875 9.75195V2.7793L10.8125 2.12305V9.0957Z" fill="white" fill-opacity="0.3" style="fill:white;fill-opacity:0.3;"/>
</svg>
