<svg width="24" height="25" viewBox="0 0 24 25" fill="none" xmlns="http://www.w3.org/2000/svg">
<path d="M9.72818 17.9319C9.69162 18.0772 8.77756 21.5 3.74975 21.5C3.55083 21.5 3.36007 21.421 3.21942 21.2803C3.07876 21.1397 2.99975 20.9489 2.99975 20.75C2.99975 15.7222 6.42256 14.8081 6.56787 14.7715C6.76094 14.7233 6.96526 14.7537 7.13589 14.8562C7.30652 14.9586 7.42948 15.1246 7.47772 15.3176C7.52595 15.5107 7.49552 15.715 7.3931 15.8857C7.29069 16.0563 7.12469 16.1792 6.93162 16.2275C6.84725 16.2509 4.82975 16.8406 4.53537 19.9644C7.65912 19.67 8.24975 17.6562 8.27412 17.5625C8.32385 17.3697 8.44814 17.2045 8.61965 17.1033C8.79115 17.0021 8.99583 16.9732 9.18865 17.023C9.38147 17.0727 9.54664 17.197 9.64782 17.3685C9.749 17.54 9.77791 17.7447 9.72818 17.9375V17.9319ZM18.4469 11.6131L17.9997 12.0603V17.5287C18.0009 17.7265 17.9626 17.9225 17.8873 18.1053C17.812 18.2881 17.7011 18.4542 17.561 18.5937L14.3435 21.8094C14.2047 21.9491 14.0397 22.06 13.8579 22.1356C13.676 22.2112 13.481 22.2501 13.2841 22.25C13.1216 22.2499 12.9601 22.2237 12.806 22.1722C12.5413 22.0846 12.3064 21.9248 12.1278 21.7108C11.9492 21.4967 11.8341 21.237 11.7954 20.9609L11.2919 17.3525L7.14725 13.2078L3.54068 12.7044C3.26425 12.6656 3.00413 12.5505 2.78956 12.3719C2.575 12.1934 2.41451 11.9585 2.32616 11.6937C2.2378 11.4289 2.22508 11.1447 2.28942 10.8731C2.35376 10.6015 2.49262 10.3532 2.69037 10.1562L5.906 6.93873C6.04557 6.79866 6.2116 6.68773 6.39444 6.61241C6.57727 6.53708 6.77326 6.49887 6.971 6.49998H12.4394L12.8866 6.05279C15.3879 3.55248 18.4019 3.44467 19.5813 3.51498C19.947 3.53721 20.2919 3.6925 20.551 3.95156C20.81 4.21062 20.9653 4.55554 20.9876 4.92123C21.056 6.0978 20.9482 9.11186 18.4479 11.6131H18.4469ZM3.74975 11.2194L7.23256 11.705L10.9394 7.99998H6.971L3.74975 11.2194ZM8.561 12.5L11.9997 15.9387L17.3857 10.5528C18.1115 9.83186 18.6746 8.9639 19.0372 8.00726C19.3997 7.05062 19.5533 6.02746 19.4876 5.00655C18.4672 4.94327 17.445 5.09845 16.4894 5.46172C15.5338 5.82499 14.6667 6.38799 13.946 7.11311L8.561 12.5ZM16.4997 13.5603L12.7938 17.2662L13.2813 20.75L16.4997 17.5287V13.5603Z" fill="black" style="fill:black;fill-opacity:1;"/>
<path d="M9.72818 17.9319C9.69162 18.0772 8.77756 21.5 3.74975 21.5C3.55083 21.5 3.36007 21.421 3.21942 21.2803C3.07876 21.1397 2.99975 20.9489 2.99975 20.75C2.99975 15.7222 6.42256 14.8081 6.56787 14.7715C6.76094 14.7233 6.96526 14.7537 7.13589 14.8562C7.30652 14.9586 7.42948 15.1246 7.47772 15.3176C7.52595 15.5107 7.49552 15.715 7.3931 15.8857C7.29069 16.0563 7.12469 16.1792 6.93162 16.2275C6.84725 16.2509 4.82975 16.8406 4.53537 19.9644C7.65912 19.67 8.24975 17.6562 8.27412 17.5625C8.32385 17.3697 8.44814 17.2045 8.61965 17.1033C8.79115 17.0021 8.99583 16.9732 9.18865 17.023C9.38147 17.0727 9.54664 17.197 9.64782 17.3685C9.749 17.54 9.77791 17.7447 9.72818 17.9375V17.9319ZM18.4469 11.6131L17.9997 12.0603V17.5287C18.0009 17.7265 17.9626 17.9225 17.8873 18.1053C17.812 18.2881 17.7011 18.4542 17.561 18.5937L14.3435 21.8094C14.2047 21.9491 14.0397 22.06 13.8579 22.1356C13.676 22.2112 13.481 22.2501 13.2841 22.25C13.1216 22.2499 12.9601 22.2237 12.806 22.1722C12.5413 22.0846 12.3064 21.9248 12.1278 21.7108C11.9492 21.4967 11.8341 21.237 11.7954 20.9609L11.2919 17.3525L7.14725 13.2078L3.54068 12.7044C3.26425 12.6656 3.00413 12.5505 2.78956 12.3719C2.575 12.1934 2.41451 11.9585 2.32616 11.6937C2.2378 11.4289 2.22508 11.1447 2.28942 10.8731C2.35376 10.6015 2.49262 10.3532 2.69037 10.1562L5.906 6.93873C6.04557 6.79866 6.2116 6.68773 6.39444 6.61241C6.57727 6.53708 6.77326 6.49887 6.971 6.49998H12.4394L12.8866 6.05279C15.3879 3.55248 18.4019 3.44467 19.5813 3.51498C19.947 3.53721 20.2919 3.6925 20.551 3.95156C20.81 4.21062 20.9653 4.55554 20.9876 4.92123C21.056 6.0978 20.9482 9.11186 18.4479 11.6131H18.4469ZM3.74975 11.2194L7.23256 11.705L10.9394 7.99998H6.971L3.74975 11.2194ZM8.561 12.5L11.9997 15.9387L17.3857 10.5528C18.1115 9.83186 18.6746 8.9639 19.0372 8.00726C19.3997 7.05062 19.5533 6.02746 19.4876 5.00655C18.4672 4.94327 17.445 5.09845 16.4894 5.46172C15.5338 5.82499 14.6667 6.38799 13.946 7.11311L8.561 12.5ZM16.4997 13.5603L12.7938 17.2662L13.2813 20.75L16.4997 17.5287V13.5603Z" fill="white" fill-opacity="0.6" style="fill:white;fill-opacity:0.6;"/>
</svg>
